{
    "id": "none",
    "content": "<h1>帮助信息-第二章：那天之后</h1><p>这一章引入了<a href=\"https://gitlab.com/acted/h2/wikis/%E9%81%93%E5%85%B7%E3%80%81buff%E7%B3%BB%E7%BB%9F%E8%AF%B4%E6%98%8E\">BUFF系统</a>，主要的buff都是通过购买衣服来实现的。</p><p>道具，也可以有一些BUFF加成。</p><p>整个技能系统被取消了，因为太复杂了。（考虑未来以作弊模式回归？）</p><p>不过就目前来看，章节重复次数好像并没有地方可以用上。</p><p>有一点点鸡肋</p>"
}