{
    "header": "小说-抖喵工厂",
    "content": "<p><style type=\"text/css\">p { margin-bottom: 0.25cm; direction: ltr; color: rgb(0, 0, 0); line-height: 115%; background: transparent none repeat scroll 0% 0%; }p.western { font-family: \"Liberation Serif\", serif; font-size: 12pt; }p.cjk { font-family: \"Noto Serif CJK SC\"; font-size: 12pt; }p.ctl { font-family: \"Noto Sans CJK SC\"; font-size: 12pt; }</style></p><p class=\"cjk\" style=\"margin-bottom: 0cm; line-height: 100%\" lang=\"zh-CN\" align=\"left\">“嘛，这个要测试工具是家用版本的嘛，所以这几天你不用这么痛苦啦。”喵摸了摸这个测试员的头，看起来他还没有走出被喵痛苦的虐待的阴影，只是呆呆的鸭子坐在这间小屋子里。</p><p class=\"cjk\" style=\"margin-bottom: 0cm; line-height: 100%\" lang=\"zh-CN\" align=\"left\">    喵又摸了摸他的头，从旁边倒了一杯热牛奶，放在了他的面前。他先是愣了一下，看着我点头了。双手伸向了装牛奶的碗，突然好像想起了什么，把手飞快的收了回来。由鸭子坐变成了狗刨一样的姿势，屁股撅高，用舌头一点一点的去舔舐牛奶。</p><p class=\"cjk\" style=\"margin-bottom: 0cm; line-height: 100%\" lang=\"zh-CN\" align=\"left\">    “没事的啦，现在表现的像一个人类也没什么问题喵。”，说完牵着他的项圈，向上把他拉了起来。他并不敢做出什么反抗的动作，双手立在胸前，嘴边还留着一点没喝掉的牛奶。喵把项圈给他解了下来，然后又呼噜了一下他的头，“这几天你要测试的产品是家用远程控制系统，要好好听网友的话哦。”</p><p class=\"cjk\" style=\"margin-bottom: 0cm; line-height: 100%\" lang=\"zh-CN\" align=\"left\">    差不多安抚完了，喵这间房子的门关上。回头看了看从另一间管理屋出来的抖喵，抖喵晚上明显是偷懒，只是穿了一件大得多的T恤睡觉。T恤下面则是抖喵清晨还没来得及冷静的唧唧，一抖一抖的。抖喵懒洋洋的打了一个哈欠，又冲着墙伸了一个懒腰。不过很快，抖喵就发现了刚把测试员安排好走在楼道上的喵。</p><p class=\"cjk\" style=\"margin-bottom: 0cm; line-height: 100%\" lang=\"zh-CN\" align=\"left\">    “你！你你你！怎么启的这么早！”，抖喵的脸刷的一下红了起来，用手把衬衫往下拉，想遮住还硬着的唧唧。但唧唧并不这么想，而是向下，稍稍露出了一个小头。</p><p class=\"cjk\" style=\"margin-bottom: 0cm; line-height: 100%\" lang=\"zh-CN\" align=\"left\">    “都8点半了啊，抖喵又在睡懒觉？”</p><p class=\"cjk\" style=\"margin-bottom: 0cm; line-height: 100%\" lang=\"zh-CN\" align=\"left\">    “哼，你想干什么。”抖喵生气的拉着衬衫，跑去卫生间洗漱去了。</p><p class=\"cjk\" style=\"margin-bottom: 0cm; line-height: 100%\" lang=\"zh-CN\" align=\"left\">    “那你这几天就好好听网友的话哦”喵对测试员说着。把测试员推进了测试用的房子。直播用的摄像头正开着，测试员乖巧的坐在摄像头前面，他穿着一身可爱的透明女仆装，将他的身体曲线完美的展现了出来。下面若隐若现，仿佛像一只还没有长出毛的小老鼠，肉肉的，正在探索这个世界。</p><p class=\"cjk\" style=\"text-indent: 0.74cm; margin-bottom: 0cm; line-height: 100%\" align=\"left\">“那接下来，请网友随意玩耍我吧。”，通过直播系统，这个画面正在20多个内测网友看着。当然，咱和抖喵也不例外。按照计划，现在网友将从给定的几个选项中做出他一天的日程表。</p><p class=\"cjk\" style=\"text-indent: 0.74cm; margin-bottom: 0cm; line-height: 100%\" align=\"left\">“先来做什么调教呢？让我看看。跳绳？这什么玩意，先设每天100好了。”，看起来网友并不太了解新系统上的各种选项。或者说，由于Beta版的缘由，并没有太多说明。到最后，整个日程表竟然出奇的像一个大学新生的入学之前刚做的计划表。只不过，当然不可能只会是简单的运动……</p><ol start=\"2\"><li><p class=\"cjk\" style=\"margin-bottom: 0cm; line-height: 100%\" align=\"left\">    早上6：30起床</p><p></p></li></ol><p class=\"cjk\" style=\"text-indent: 0.74cm; margin-bottom: 0cm; line-height: 100%\" align=\"left\">早上起来洗漱完毕后，按照计划，要去晨跑15分钟。毕竟设备正在测试中，抖喵也一同和测试员在厂房周围跑步。测试员穿上了特别为了这套计划的鞋子和贞操锁，放在旁边早就准备好的手机和帽恤。从外表上，现在测试员和正常的人并没有什么不同了。抖喵则还是她一直的爱穿的长T恤搭配热裤，从远处看，非常像没有穿裤子一样。抖喵用手揉了揉脸说，“那，我们出发吧。”这么早起对于抖喵来说肯定是一件痛苦的事情，至少从他睡意朦胧的脸庞可以看得出来。</p><p class=\"cjk\" style=\"text-indent: 0.74cm; margin-bottom: 0cm; line-height: 100%\" align=\"left\">“嗯！主人今天好可爱！”，测试员用一种有点激动语气说，看起来是被可爱的抖喵吸引了呢～</p><p class=\"cjk\" style=\"text-indent: 0.74cm; margin-bottom: 0cm; line-height: 100%\" align=\"left\">厂房周围有点荒凉，新建成的柏油路两旁除了抖喵这一家工厂和配套的仓库宿舍以外，没有什么人烟。这对于开发和测试这些新产品很是有利，尤其是各种露出任务，新产品总是会出现该开锁不开，让倒霉的测试员被迫锁在大树上好久。或是没有隐藏好，露出的时候被厂里的工人一眼认出来。</p><p class=\"cjk\" style=\"text-indent: 0.74cm; margin-bottom: 0cm; line-height: 100%\" align=\"left\">跑步只是绕着厂房跑15分钟，测试员和抖喵做好了准备活动，开始绕着厂房跑步。对于测试员来说，一来是刚刚经历胶衣捆绑特训，好几天都没有运动。二来是测试的鞋子还是比较笨重的。一跑起来，测试员只能勉强跟在抖喵的后面。抖喵就不一样了，为了减肥抖喵天天都会在厂房周围跑上几圈。很轻松的就跑在了测试员的前面。盛夏季节，加上最近全球变暖，很快抖喵的衣服就被汗浸湿了。白色的T恤在汗水的衬托下，隐隐衬托出抖喵肉色的身体。抖喵纤细的腰一扭一扭的，汗滴从抖喵的头上一滴一滴的滴到地上，抖喵随手用手擦了一下汗，也许是抖喵的T恤袖子有点短，也许是因为抖喵总是喜欢穿大好几号的T恤。袖子从肩膀上直接向后滑落，露出了抖喵白皙的肩膀。</p><p class=\"cjk\" style=\"text-indent: 0.74cm; margin-bottom: 0cm; line-height: 100%\" align=\"left\">“嗷呜，好，好痛”，测试员捂着自己小肉团，被迫坐在了地上。抖喵回过头来，一只手扶着测试员的肩膀，另外一只手扶着膝盖，双腿自然的内八字。</p><p class=\"cjk\" style=\"text-indent: 0.74cm; margin-bottom: 0cm; line-height: 100%\" align=\"left\">“怎么了？”</p><p class=\"cjk\" style=\"text-indent: 0.74cm; margin-bottom: 0cm; line-height: 100%\" align=\"left\">“检测到非法勃起，且还在兴奋。强制电击冷却中”，项圈发出的电子音回答了抖喵的疑问。测试员还没来得及说话，看起来项圈的全自动消声电击已经让测试员被迫沉默。至少从测试员的脸上来看，抖喵觉得得看一看测试员的小肉团怎么样了。抖喵把测试员放平，对着测试员的耳朵说：</p><p class=\"cjk\" style=\"text-indent: 0.74cm; margin-bottom: 0cm; line-height: 100%\" align=\"left\">“咱要看看你的小肉团还好不好，把手让开一下哦。”</p><p class=\"cjk\" style=\"text-indent: 0.74cm; margin-bottom: 0cm; line-height: 100%\" align=\"left\">抖喵很明显没发现测试员正是因为她才导致的勃起，而一旦勃起，只要机器检测到勃起程度继续加大，相应的电击惩罚力度和部位都会增加。</p><p class=\"cjk\" style=\"text-indent: 0.74cm; margin-bottom: 0cm; line-height: 100%\" align=\"left\">测试员在强大的电击强度下，已经无力在按住自己的小肉团和裤子了。只能任由抖喵轻轻的将自己的裤子拉下来，感受抖喵软软的手正在抚摸自己的大腿，她身上的汗又滴在了测试员的身上，感受着抖喵光滑的大腿和自己的大腿接触，感受着抖喵抚摸自己正被强力电击，正锁在贞操锁里的小肉团。</p><p class=\"cjk\" style=\"text-indent: 0.74cm; margin-bottom: 0cm; line-height: 100%\" align=\"left\">“不，不，不要。”，测试员在被消声电击的空隙，发出一点点甚至不足以让抖喵注意到的声音。</p><p class=\"cjk\" style=\"text-indent: 0.74cm; margin-bottom: 0cm; line-height: 100%\" align=\"left\">测试员，在多重刺激下，射在了抖喵的手上</p>",
    "footer": "<a  class=\"modal-close waves-effect waves-green btn-flat\" href=\"#!\">关闭</a><a  class=\"modal-close waves-effect waves-green btn-flat\" onclick=\"noval('1/2')\">阅读完了</a>"
  }