{
    "header": "迫害抖喵系列-抖喵的战争",
    "content": "<p>可爱的抖喵<br>2333年，人类文明已经得到了很大的发展。为了保护环境，也是保证人口数量。战争已经不再是硝烟四起，民不聊生。各国均用各种高性能性药代替了传统的枪炮。被这种性药所迷住的人，脑子里能想到的只有做爱，为了做爱甚至可以牺牲生命。<br>抖喵，医务兵。即使是这样的战场，也还是需要医务兵。毕竟这些性药通常也有快速解药。不过，和一般的士兵不同，抖喵是贵族的孩子。白皙的肌肤，柔软的身躯，圆圆的脸庞。即使放在日常，也总是有士兵精虫上脑，想上了这个可爱的医务兵。只不过快速解药的副作用也很简单：一个月内，基本上用过解药的人都不会想性方面的事情，甚至极其厌恶性器官。因此抖喵在战场上很安全，就目前来说。凡是想要太阳抖喵的人，都会被抖喵狠狠的打上一针。<br>马上就要开战了。对面的敌人有大型性药迫击炮，火力压制极其强大。指挥官决定，让部队里最尖锐的一只部队，和抖喵一起，在夜间偷袭炮兵阵地。指挥官认为这次行动万无一失，并没有给士兵配发部队里少有的防毒面具。<br>夜幕降临，部队出发了。在红外夜视仪的帮助下，这支小队很快就被敌方发现了。性药蔓延到了各个地方。作为贵族的孩子，抖喵有自己的防毒面具。英勇的战士们很快就与抖喵配合着攻占下了敌人的阵地。敌人软弱的趴在地上，唧唧还在流着水。<br>“辣鸡唧唧，还有资格上战场”，抖喵不屑的踢向刚刚那个企图拉响最后的手榴弹的人的蛋蛋，随着抖喵娴熟的脚法，一簇近乎透明的液体混着一点血丝从那个人的唧唧里面射了出来，他死了。现代的性药战争不会直接杀死人，但精尽人亡会。对于那些还没有精尽人亡的战俘，一般会被拉到工厂，用性药驱使他们流干最后一滴血和精。<br>“为了催更！”，不知是从哪里冒出来的一声嚎叫，紧接着就是一阵烟雾。不好！是强力性药烟雾！抖喵迅速的拿出解药包，只剩两支。完了，之前为了轰走来欺负自己的战士，解药已经用光了。<br>战士们一个个都脱下了裤子，围到了抖喵周围。一根根巨大的阳根放在了抖喵的各个身体部位前面，战士还没等抖喵回过神来，战士们在这方面就达成了一致。抖喵的小嘴被一根4，不，有5厘米粗的阳根撑满。抖喵不自然的干呕，用舌头抵抗着阳根的侵入。这却只能加大那位战士的快感，快速的抽插渐渐让抖喵失去了抵抗的力气，身体被迫放松下来。强力性药让这些原本可以坚持好几个小时的战士在30秒就射了出来。军队内近乎严苛的禁欲规定，让战士们的精液量大，浓稠。一下子就把抖喵从喉咙深处到鼻子全部覆盖住了。<br>现在，抖喵基本上被迫忍受水刑的痛苦，或者准确一点，精液刑。抖喵如果想吸气，喉咙深处已经被战士连续的抽插和随机的射精填满了。而鼻子，现在抖喵脸上都是精液，好几十个战士轮番对着抖喵射精，抖喵一旦吸气，只会把精液吸到气管内，带来巨大的痛苦。抖喵能做的，只有趁着对她口交的那根巨屌拿出去的时候，把在小嘴里的精液一口喝掉，再快速吸一口气。<br>可以说，抖喵的体内，无论是气管、肺还是肠子。抖喵内部已经到处都是精液了。<br>后面的情况当然更惨。战士一开始还残留了一点理智，一根一根，每人侵犯大概1分钟就会换人。虽然已经很大了，但抖喵还能勉强忍受一下下。过了大概5分钟，最后的这点理智也已经消失了。2根，3根，最后一直塞到了5根。抖喵可怜的小雏菊被撑的流出了血，精液几乎已经将整个直肠填满。血、精还有黄色的东西夹杂着一些肠液，正从这5根大唧唧所挤出来的一小点空隙流出来……<br>手上也不能闲着，哪怕抖喵很抗拒给战士们手交，但与其再把这几根插入自己的小嘴或者小菊，不如用自己的双手给他们解决。抖喵用仅存的力气机械的给围在这里的战士手交，哪怕每一根唧唧抖喵甚至一手都抓不住，抖喵作为贵族娴熟的手法，也能让他们以极快的速度，达到高潮。只不过，这样来看，抖喵全身上下，已经被精液覆盖满了。<br><br>抖喵只觉得，时间过了好久。等她再次醒来的时候，正躺在敌方的野战医院里面，脖子上戴着一个战俘用的智能项圈，双手被温柔但安全的皮质拘束带固定在两边，身上的精液早已被擦干净。外面一颗粉红色的玉兰树正盛开着她的姿态，一切就好像战争之前，自己在家里，每天睡着懒觉，起床，去做自己喜欢的事情一样。<br>“抖喵你醒了啊。作为指挥官被自己的战士搞成这样真的是可爱呢。”，抖喵的眼睛被眼罩遮住，虽然抖喵自己不知道是谁在对自己说话，从声音听起来，应该是一个医护人员或者对方的贵族吧。<br>“Acted把你要走了哦。从现在开始，你是一个奴隶了哦。”<br></p>",
    "footer": "<a  class=\"modal-close waves-effect waves-green btn-flat\" href=\"#!\">关闭</a><a  class=\"modal-close waves-effect waves-green btn-flat\" onclick=\"noval('2/0')\">阅读完了</a>"
  }